…
### Calculating the average and median steps per day. Since the null and zero values influences on the result, I've opted to remove them for a clearer output.

``` r
medianSteps <- data %>%
    filter(steps != 0) %>%
    group_by(date) %>%
    summarise(sum = sum(steps), mean=mean(steps), median=median(steps))
medianSteps
```

    ## # A tibble: 53 x 4
    ##    date         sum  mean median
    ##    <fct>      <int> <dbl>  <dbl>
    ##  1 2012-10-02   126  63.0   63.0
    ##  2 2012-10-03 11352 140.    61.0
    ##  3 2012-10-04 12116 121.    56.5
    ##  4 2012-10-05 13294 155.    66.0
    ##  5 2012-10-06 15420 145.    67.0
    ##  6 2012-10-07 11015 102.    52.5
    ##  7 2012-10-09 12811 135.    48.0
    ##  8 2012-10-10  9900  95.2   56.5
    ##  9 2012-10-11 10304 137.    35.0
    ## 10 2012-10-12 17382 157.    46.0
    ## # ... with 43 more rows

### Now we group the date by interval to understand how many steps the subject takes along the day:

``` r
activityPattern <- data %>%
    filter(steps !=0) %>%
    group_by(interval) %>%
    summarise(steps=mean(steps))
activityPattern
```

    ## # A tibble: 269 x 2
    ##    interval steps
    ##       <int> <dbl>
    ##  1        0 30.3 
    ##  2        5 18.0 
    ##  3       10  7.00
    ##  4       15  8.00
    ##  5       20  4.00
    ##  6       25 27.8 
    ##  7       30 28.0 
    ##  8       35 46.0 
    ##  9       45 39.0 
    ## 10       50  8.00
    ## # ... with 259 more rows
…
    ## [1] 13.11475

### Since the missing data represents 13.11% of the data, it is suitable to fill the missing values. The method chosen is to replace the missing values by the average of that interval

### Firstly, we recalculate the activity pattern, replacing the NA values by 0

``` r
activityPattern2 <- data %>%
    replace(., is.na(.), 0) %>%
    group_by(interval) %>%
    summarise(steps=mean(steps))
activityPattern2
```

    ## # A tibble: 288 x 2
    ##    interval  steps
    ##       <int>  <dbl>
    ##  1        0 1.49  
    ##  2        5 0.295 
    ##  3       10 0.115 
    ##  4       15 0.131 
    ##  5       20 0.0656
    ##  6       25 1.82  
    ##  7       30 0.459 
    ##  8       35 0.754 
    ##  9       40 0.    
    ## 10       45 1.28  
    ## # ... with 278 more rows
…
### Recalculating the average and median steps per day:

``` r
fullMedianSteps <- fullData %>%
    filter(steps !=0) %>%
    group_by(date) %>%
    summarise(sum = sum(steps), mean=mean(steps), median=median(steps, na.rm=T))
fullMedianSteps
```

    ## # A tibble: 61 x 4
    ##    date          sum  mean median
    ##    <fct>       <dbl> <dbl>  <dbl>
    ##  1 2012-10-01  9354.  34.8   32.5
    ##  2 2012-10-02   126.  63.0   63.0
    ##  3 2012-10-03 11352. 140.    61.0
    ##  4 2012-10-04 12116. 121.    56.5
    ##  5 2012-10-05 13294. 155.    66.0
    ##  6 2012-10-06 15420. 145.    67.0
    ##  7 2012-10-07 11015. 102.    52.5
    ##  8 2012-10-08  9354.  34.8   32.5
    ##  9 2012-10-09 12811. 135.    48.0
    ## 10 2012-10-10  9900.  95.2   56.5
    ## # ... with 51 more rows
…
### And lastly, we filter the data by weekend and plot the results:

``` r
weekendPlot <- fullData2 %>%
    filter(weekend==1) %>%
    group_by(interval) %>%
    summarise(steps=mean(steps))
weekendPlot
```

    ## # A tibble: 288 x 2
    ##    interval   steps
    ##       <int>   <dbl>
    ##  1        0 0.186  
    ##  2        5 0.0369 
    ##  3       10 0.0143 
    ##  4       15 0.0164 
    ##  5       20 0.00820
    ##  6       25 3.48   
    ##  7       30 0.0574 
    ##  8       35 0.0943 
    ##  9       40 0.     
    ## 10       45 0.535  
    ## # ... with 278 more rows

``` r
weekdayPlot <- fullData2 %>%
    filter(weekend==0) %>%
    group_by(interval) %>%
    summarise(steps=mean(steps))
weekdayPlot
```

    ## # A tibble: 288 x 2
    ##    interval  steps
    ##       <int>  <dbl>
    ##  1        0 2.22  
    ##  2        5 0.439 
    ##  3       10 0.171 
    ##  4       15 0.195 
    ##  5       20 0.0976
    ##  6       25 1.55  
    ##  7       30 0.683 
    ##  8       35 1.12  
    ##  9       40 0.    
    ## 10       45 1.77  
    ## # ... with 278 more rows
…
